{
    "img_url": "https://www.welt.de/img/vermischtes/bilder-des-tages/mobile208172163/7412504207-ci102l-w1024/Coronavirus-Philippinen-bdt2305.jpg",
    "title": "Hirngespinst",
    "description": "Der philippinische K\u00fcnstler Leeroy New tr\u00e4gt in seinem Atelier in Manila eine improvisierte Gesichtsmaske. Er benutzt Plastikflaschen, Tassen und Federb\u00e4lle, um kreat",
    "details": "Welt.de",
    "filename": "welt-a87a-6d22-2ec9"
}