{
    "img_url": "https://www.welt.de/img/vermischtes/bilder-des-tages/mobile208088215/3752508537-ci102l-w1024/Outbreak-of-coronavirus-disease-COVID-19-in-Tokyo-Japan.jpg",
    "title": "Perlen vor die S\u00e4ue",
    "description": "In Tokio tragen YouTuber w\u00e4hrend eines Videodrehs Schweinemasken.",
    "details": "Welt.de",
    "filename": "welt-3e4b-85f4-ddce"
}