{
    "img_url": "https://www.welt.de/img/vermischtes/bilder-des-tages/mobile208007917/8982509517-ci102l-w1024/Road-In-The-Mountain-Area-In-Chongqing.jpg",
    "title": "Im Zickzack durch die Landschaft",
    "description": "Die Stra\u00dfenf\u00fchrung in der Millionenstadt Chongqing, China, ist von Kurven bestimmt.",
    "details": "Welt.de",
    "filename": "welt-2e53-6205-f5a5"
}