{
    "img_url": "https://www.welt.de/img/vermischtes/bilder-des-tages/mobile208778833/5142509177-ci102l-w1024/TOPSHOT-A-visitor-looks-at-a-pola-bdt0206.jpg",
    "title": "Wassergymnastik",
    "description": "Ein Besucher des \u201eHakkeijima Sea Paradise\u201c-Themenparks in Yokohama beobachtet einen Eisb\u00e4ren in einem Becken beim Schwimmen.",
    "details": "Welt.de",
    "filename": "welt-8bc2-82ea-a2d9"
}