{
    "img_url": "https://www.welt.de/img/vermischtes/bilder-des-tages/mobile208434653/2862502357-ci102l-w1024/bdt-2705.jpg",
    "title": "Lichtermeer",
    "description": "Luftaufnahme des Stadtteils Ciudad Bolivar s\u00fcdlich von Bogota, Kolumbien.",
    "details": "Welt.de",
    "filename": "welt-20fc-f7a3-0301"
}