{
    "img_url": "https://www.welt.de/img/vermischtes/bilder-des-tages/mobile208007841/6292509517-ci102l-w1024/Coronavirus-Gastronomie.jpg",
    "title": "Der Meterstab wird zum wichtigsten Werkzeug",
    "description": "Nach wochenlanger Corona-Zwangspause darf die Gastronomie wieder den Betrieb aufnehmen - mit Abstand.",
    "details": "Welt.de",
    "filename": "welt-c23d-d592-d453"
}