{
    "img_url": "https://www.welt.de/img/vermischtes/mobile208835265/3492505827-ci102l-w1024/Hotel-unter-dem-Sternenhimmel-Schweiz-bdt0306.jpg",
    "title": "Frischluft",
    "description": "Ein Mann und eine Frau liegen in einem Bett auf einem Plateau in \u201eHeidiland&quot;, eine Ferienregion zwischen dem westlichen Walensee und Bad Ragaz in der Ostschweiz. Das Nu",
    "details": "Welt.de",
    "filename": "welt-0a1e-70c8-0df3"
}