{
    "img_url": "https://www.welt.de/img/vermischtes/bilder-des-tages/mobile208219193/8992502627-ci102l-w1024/bdt-2405.jpg",
    "title": "Im Fluss",
    "description": "In Schlauchboot und Kajak relaxen diese Erholungssuchenden an einem Anleger auf dem Potomac River in Washington.",
    "details": "Welt.de",
    "filename": "welt-434b-c36b-af56"
}