{
    "img_url": "https://www.welt.de/img/vermischtes/mobile208835165/2382505827-ci102l-w1024/Protests-Continue-Over-Death-Of-George-Floyd-Killed-In-Police-Custody-In-Minneapolis-bdt0306.jpg",
    "title": "Erinnerung",
    "description": "In einem Familienalbum seiner Tochter Gianna Floyd sind Bilder von George Floyd und ihrer Mutter Roxie Washington zu sehen. Es wurde auf einer Pressekonferenz in St. Pa",
    "details": "Welt.de",
    "filename": "welt-4498-ded9-7bbd"
}