{
    "img_url": "https://www.welt.de/img/vermischtes/bilder-des-tages/mobile208712455/9892500947-ci102l-w1024/Passengers-wearing-face-masks-sit-i-bdt0106.jpg",
    "title": "Ohne Schutzmaske geht es derzeit nur in der Werbung",
    "description": "Fahrg\u00e4ste in einem Bus in Kochi. Indien ist derzeit besonders stark von der Corona-Pandemie betroffen.",
    "details": "Welt.de",
    "filename": "welt-8576-4bee-9b28"
}