{
    "img_url": "https://www.welt.de/img/vermischtes/bilder-des-tages/mobile207893397/7852504327-ci102l-w1024/bdt-1105.jpg",
    "title": "Leere Stra\u00dfen",
    "description": "Zwei Musiker warten in Tegucigalpa (Honduras) auf Passanten.",
    "details": "Welt.de",
    "filename": "welt-72e8-6b47-7805"
}