{
    "img_url": "https://www.welt.de/img/vermischtes/bilder-des-tages/mobile208434655/3442504447-ci102l-w1024/bdt-2705.jpg",
    "title": "Einsamer Bulle",
    "description": "Der spanische Matador Javier Conde trainiert t\u00e4glich mit seinem Stier in der Arena vom Montes de Oca-Farm in Olvera bei Cadiz, um sich auf die Stierkampfsaison vorz",
    "details": "Welt.de",
    "filename": "welt-264d-65cd-de03"
}