{
    "img_url": "https://www.welt.de/img/vermischtes/bilder-des-tages/mobile208641709/3692506527-ci102l-w1024/A-drag-queen-dressed-up-and-named-a-bdt3005.jpg",
    "title": "Verkleidet und maskiert",
    "description": "Eine Drag-Queen in Mexiko-Stadt w\u00e4hrend einer Veranstaltung f\u00fcr Menschen, die aufgrund der Corona-Pandemie nicht arbeiten konnten.",
    "details": "Welt.de",
    "filename": "welt-23bd-30cf-20a4"
}