{
    "img_url": "https://www.welt.de/img/vermischtes/bilder-des-tages/mobile208043287/0632505177-ci102l-w1024/Landwirtschaft-in-China.jpg",
    "title": "Angestrahlt",
    "description": "Kunstlicht erhellt eine Drachenfrucht-Plantage im Dorf Bacao (China), um die Lichtversorgung der Pflanzen zu optimieren.",
    "details": "Welt.de",
    "filename": "welt-8624-749d-040d"
}