{
    "img_url": "https://www.welt.de/img/vermischtes/bilder-des-tages/mobile208515783/0722507427-ci102l-w1024/bdt-2805.jpg",
    "title": "Theater f\u00fcr Distanzierte",
    "description": "Im Berliner Ensemble werden St\u00fchle aus den Sitzreihen des Zuschauerraums ausgebaut, damit bei Auff\u00fchrungen die Abstandsregeln eingehalten werden k\u00f6nnen.",
    "details": "Welt.de",
    "filename": "welt-078a-2539-2d01"
}