{
    "img_url": "https://www.welt.de/img/vermischtes/bilder-des-tages/mobile208352895/0812504967-ci102l-w1024/bdt-2605.jpg",
    "title": "S\u00fcnder schnell gefunden",
    "description": "Objekterkennungs- und Verfolgungstechnologie in Seoul, mit der Menschen ohne Schutzmaske erkannt werden sollen.",
    "details": "Welt.de",
    "filename": "welt-19ef-95f0-921f"
}