{
    "img_url": "https://www.welt.de/img/vermischtes/bilder-des-tages/mobile208024749/5232500067-ci102l-w1024/France-Organizes-Gradual-Exit-From-Coronavirus-Lockdown.jpg",
    "title": "Freiheit",
    "description": "Diese Frau genie\u00dft endlich wieder die \u00d6ffentlichkeit und die Sonnenstrahlen. In Frankreich hatte es eine zweimonatige Ausgangssperre gegeben - deutlich strenger als in De",
    "details": "Welt.de",
    "filename": "welt-5478-d75c-9de3"
}