{
    "img_url": "https://www.welt.de/img/vermischtes/bilder-des-tages/mobile207921937/7182500547-ci102l-w1024/bdt-1205.jpg",
    "title": "Ein Pl\u00e4uschchen zwischendurch",
    "description": "Zwei LKW Fahrer unterhalten sich in einem Stau auf der A2, die nach einem LKW-Unfall vollgesperrt ist.",
    "details": "Welt.de",
    "filename": "welt-8316-a4d7-65a6"
}