{
    "img_url": "https://www.welt.de/img/vermischtes/bilder-des-tages/mobile208778535/4962501267-ci102l-w1024/Nur-nichts-anbrennen-lassen-im-Kunst-Musem-Bonn-bdt0206.jpg",
    "title": "Sammlung",
    "description": "Eine Frau schaut sich die Arbeit \u201eBismarckzeit&quot; (1978) der K\u00fcnstlerin Hanne Darboven in der Ausstellung \u201eNur nichts anbrennen lassen&quot; im Kunstmuseum Bonn an, die ab dem 3",
    "details": "Welt.de",
    "filename": "welt-3e53-827b-334d"
}