{
    "img_url": "https://www.welt.de/img/vermischtes/bilder-des-tages/mobile208088209/2182503227-ci102l-w1024/Canada-Tulip-Festival.jpg",
    "title": "Herrlich blumig",
    "description": "Am letzten Tag des Canadian Tulip Festivals sitzen Menschen in Ottawa auf einer Bank, im Hintergrund das kanadische Parlament.",
    "details": "Welt.de",
    "filename": "welt-6af5-8d08-005c"
}