{
    "img_url": "https://www.welt.de/img/vermischtes/bilder-des-tages/mobile208778561/8132509177-ci102l-w1024/Coronavirus-Brasilien-bdt0206.jpg",
    "title": "Notboot",
    "description": "Mitarbeiter des brasilianischen Gesundheitswesens bringen einen Corona-Patienten in Manacapuru mit einem Boot zu einem Krankenwagen, der ihn in ein Krankenhaus transportie",
    "details": "Welt.de",
    "filename": "welt-efa9-940e-0402"
}