{
    "img_url": "https://www.welt.de/img/vermischtes/bilder-des-tages/mobile208269195/2212505037-ci102l-w1024/bdt-2505.jpg",
    "title": "Gute Reise? Ein Kind tr\u00e4gt am Indira-Gandhi-Flughafen in Indiens Hauptstadt Neu-Delhi eine Schutzmaske und Handschuhe",
    "description": "Gute Reise? Ein Kind tr\u00e4gt am Indira-Gandhi-Flughafen in Indiens Hauptstadt Neu-Delhi eine Schutzmaske und Handschuhe.",
    "details": "Welt.de",
    "filename": "welt-fb16-0298-5485"
}