{
    "img_url": "https://www.welt.de/img/vermischtes/bilder-des-tages/mobile208064695/3292507227-ci102l-w1024/George-Washington-University-graduate-Perez-receives-a-paper-copy-of-her-diploma-from-her-neighbor-at-a-surprise-graduation-party-in-Washington.jpg",
    "title": "Abschluss mit Distanz",
    "description": "Catalina Perez, Absolventin der George Washington University, bekommt ihr Diplom \u00fcberreicht.",
    "details": "Welt.de",
    "filename": "welt-3e71-a8c6-45c9"
}