{
    "img_url": "https://www.welt.de/img/vermischtes/bilder-des-tages/mobile208007867/9352507427-ci102l-w1024/BELGIUM-HEALTH-VIRUS.jpg",
    "title": "Mein rechter, rechter Platz ist frei",
    "description": "Mit dem Nachbarn quatschen ist in der Schule vorerst unm\u00f6glich, wie diese Grundschule in Hannut, Belgien, zeigt.",
    "details": "Welt.de",
    "filename": "welt-059b-3755-c492"
}