{
    "img_url": "https://www.welt.de/img/vermischtes/bilder-des-tages/mobile208131435/1542501687-ci102l-w1024/People-enjoy-the-beach-front-in-Tel-bdt2105.jpg",
    "title": "Hurra, die Str\u00e4nde sind wieder offen",
    "description": "Kollektive Erleichterung in Tel Aviv (Israel). Social distancing fiel w\u00e4hrend der enormen Hitzewelle ohne Strandnutzung besonders schwer.",
    "details": "Welt.de",
    "filename": "welt-7125-d4b3-9d85"
}