{
    "img_url": "https://www.welt.de/img/vermischtes/bilder-des-tages/mobile207921933/3982500547-ci102l-w1024/bdt-1205.jpg",
    "title": "Fastengebet",
    "description": "W\u00e4hrend des islamischen Monats Ramadan nehmen Menschen an Gebeten in der Al Munawarah-Moschee in Jantho in der Provinz Aceh in Indonesien teil.",
    "details": "Welt.de",
    "filename": "welt-5fd4-d812-460d"
}