{
    "img_url": "https://www.welt.de/img/vermischtes/bilder-des-tages/mobile208113683/5732501527-ci102l-w1024/Men-practice-fencing-in-a-park-amidst-the-easing-of-the-coronavir.jpg",
    "title": "En garde! Zwei M\u00e4nner bei einer Fecht\u00fcbung in einem Park in Sydney, Australien",
    "description": "En garde! Zwei M\u00e4nner bei einer Fecht\u00fcbung in einem Park in Sydney, Australien.",
    "details": "Welt.de",
    "filename": "welt-95d4-9eff-750a"
}