{
    "img_url": "https://www.welt.de/img/vermischtes/bilder-des-tages/mobile208172207/1852506297-ci102l-w1024/TOPSHOT-Young-women-wearing-facem-bdt2305.jpg",
    "title": "Chat",
    "description": "Zwei junge Frauen, die Gesichtsmasken und traditionelle Kost\u00fcme der Song- und der Tang-Dynastie tragen, sitzen auf einer Bank in einem Park neben dem East Lake in Wuhan, dem",
    "details": "Welt.de",
    "filename": "welt-6e84-f6d0-03d2"
}