{
    "img_url": "https://www.welt.de/img/vermischtes/bilder-des-tages/mobile207921927/0212500547-ci102l-w1024/bdt-1205.jpg",
    "title": "\u00dcbung macht den Meister",
    "description": "Drei Mitarbeiter trainieren Social Distancing im Fahrstuhl des World Trade Center in Colombo, Sri Lanka.",
    "details": "Welt.de",
    "filename": "welt-6dbc-814c-976b"
}