{
    "img_url": "https://www.welt.de/img/vermischtes/bilder-des-tages/mobile207968109/5742501647-ci102l-w1024/bdt-1405.jpg",
    "title": "In Reih und Glied",
    "description": "F\u00fcr einen Test stehen Menschen in einer Schlange auf einem Bahnsteig in Fatehpur im indischen Bundesstaat Uttar Pradesh.",
    "details": "Welt.de",
    "filename": "welt-bf8e-fcba-645b"
}