{
    "img_url": "https://www.welt.de/img/vermischtes/bilder-des-tages/mobile207889713/4182502857-ci102l-w1024/bdt-1105.jpg",
    "title": "Fest im Griff",
    "description": "In den Fitnessstudios in K\u00f6ln darf wieder trainiert werden, wie hier bei McFit.",
    "details": "Welt.de",
    "filename": "welt-de3c-350c-3048"
}