{
    "img_url": "https://www.welt.de/img/vermischtes/bilder-des-tages/mobile208043349/3342503087-ci102l-w1024/Tourismus-an-der-Kueste-laeuft-wieder-an.jpg",
    "title": "Familienurlaub",
    "description": "Touristen mit Koffern laufen \u00fcber die Insel Spiekeroog. Zahlreiche Menschen haben die Tourismus-Lockerungen diese Woche genutzt und sind zum Urlaub auf die Ostfries",
    "details": "Welt.de",
    "filename": "welt-f1b0-684b-f92f"
}