{
    "img_url": "https://www.welt.de/img/vermischtes/bilder-des-tages/mobile208064697/7842507227-ci102l-w1024/A-Typical-Sunday-at-Favela-Aglomerado-da-Serra-Amidst-the-Coronavirus-COVID-19-Pandemic.jpg",
    "title": "Der Ball rollt wieder",
    "description": "Jugendliche spielen Fu\u00dfball an der Favela Aglomerado da Serra in Belo Horizonte, Brasilien.",
    "details": "Welt.de",
    "filename": "welt-7d74-4ab0-092e"
}