{
    "img_url": "https://www.welt.de/img/vermischtes/mobile208835269/8152503737-ci102l-w1024/Black-Lives-Matter-protests-across-the-country-after-George-Floyd-s-death-bdt0306.jpg",
    "title": "Protest",
    "description": "Am provisorischen Denkmal zu Ehren von George Floyd in Minneapolis (US-Bundesstaat Minnesota) heben Menschen ihre H\u00e4nde und rufen Slogans.",
    "details": "Welt.de",
    "filename": "welt-2169-6718-8922"
}