{
    "img_url": "https://www.welt.de/img/vermischtes/bilder-des-tages/mobile208434681/9272504447-ci102l-w1024/bdt-2705.jpg",
    "title": "Nachtwanderung",
    "description": "Ehrenamtliche Retter suchen in einem Feld im nieders\u00e4chsischen Seesen nach einem Rehkitz. So soll verhindert werden, dass es durch eine M\u00e4hmaschine get\u00f6tet wird.",
    "details": "Welt.de",
    "filename": "welt-7571-402c-c9e6"
}