{
    "img_url": "https://www.welt.de/img/vermischtes/bilder-des-tages/mobile208219253/7622502627-ci102l-w1024/bdt-2405.jpg",
    "title": "Fleischeslust",
    "description": "Auf dem Geudong-Markt in Aceh (Indonesien) h\u00e4ngt der Kopf eines B\u00fcffels an einem Stand zwischen anderen Metzgerwaren. W\u00e4hrend Meugang, einer lokalen Tradition, suche",
    "details": "Welt.de",
    "filename": "welt-84ec-0f70-f365"
}