{
    "img_url": "https://www.welt.de/img/vermischtes/bilder-des-tages/mobile208346029/5692501887-ci102l-w1024/bdt-2605.jpg",
    "title": "Alles im Blick",
    "description": "\u00dcberwachungskameras in Chinas Hauptstadt Peking.",
    "details": "Welt.de",
    "filename": "welt-994e-bbf4-c71d"
}