{
    "img_url": "https://www.welt.de/img/vermischtes/bilder-des-tages/mobile208113677/5762501527-ci102l-w1024/A-man-is-sprayed-with-hypochlorous-acid-water-as-a-measure-to-pre.jpg",
    "title": "A man is sprayed with hypochlorous acid water as a measure to prevent infection of the coronavirus disease (COVID-19) at the entrance of Kichiri Shinjuku, a Japanese style pub kno",
    "description": "A man is sprayed with hypochlorous acid water as a measure to prevent infection of the coronavirus disease (COVID-19) at the entrance of Kichiri Shinjuku, a Japanese style pub know",
    "details": "Welt.de",
    "filename": "welt-6f73-5570-12ee"
}