{
    "img_url": "https://www.welt.de/img/vermischtes/bilder-des-tages/mobile208641711/5182506527-ci102l-w1024/An-orthodox-worshiper-with-an-eye-bdt3005.jpg",
    "title": "Weltlicher Schutz",
    "description": "Eine christlich-orthodoxe Gl\u00e4ubige im rum\u00e4nischen Konstanza, gesch\u00fctzt durch ein Plastikschild vorm Gesicht.",
    "details": "Welt.de",
    "filename": "welt-88b5-4766-9639"
}