{
    "img_url": "https://www.welt.de/img/vermischtes/bilder-des-tages/mobile208346073/8022500507-ci102l-w1024/bdt-2605.jpg",
    "title": "Klein aber fein",
    "description": "Eine frisch geschl\u00fcpfte Schildkr\u00f6te wird in Kambodscha gewogen.",
    "details": "Welt.de",
    "filename": "welt-6627-e163-ede3"
}