{
    "img_url": "https://www.welt.de/img/vermischtes/bilder-des-tages/mobile208024447/6052508317-ci102l-w1024/TOPSHOT-AUSTRALIA-HEALTH-VIRUS-NURSES.jpg",
    "title": "Systemrelevanter Engel",
    "description": "In Melbourne (Australien) werden die Angestellten des Gesundheitssystems mit einem Bildnis gefeiert.",
    "details": "Welt.de",
    "filename": "welt-4454-d334-01d3"
}