{
    "img_url": "https://www.welt.de/img/vermischtes/bilder-des-tages/mobile208712327/4122500947-ci102l-w1024/A-rainbow-appears-on-the-horizon-af-bdt0106.jpg",
    "title": "Perfekter Regenbogen",
    "description": "In Neu-Delhi ist ein Naturwunder zu bestaunen.",
    "details": "Welt.de",
    "filename": "welt-2bad-3ae4-9afb"
}