{
    "img_url": "https://www.welt.de/img/vermischtes/bilder-des-tages/mobile208516097/0882505497-ci102l-w1024/bdt-2805.jpg",
    "title": "Sind das Schatzkisten? Am Birdie Beach in Australien wurden f\u00fcnf Container an den Strand gesp\u00fclt, die sich zuvor auf rauer See von einem Schiff gel\u00f6st hatten",
    "description": "Sind das Schatzkisten? Am Birdie Beach in Australien wurden f\u00fcnf Container an den Strand gesp\u00fclt, die sich zuvor auf rauer See von einem Schiff gel\u00f6st hatten.",
    "details": "Welt.de",
    "filename": "welt-6d26-5d0b-22b2"
}