{
    "img_url": "https://www.welt.de/img/vermischtes/bilder-des-tages/mobile208113679/2122501527-ci102l-w1024/Boys-play-with-a-ball-on-a-river-ah-bdt-2005.jpg",
    "title": "R\u00fcckw\u00e4rts ins k\u00fchle Nass",
    "description": "Ein Junge macht einen Fallr\u00fcckzieher in den Fluss Bhairab, der durch die Stadt Khulna in Bangladesch flie\u00dft.",
    "details": "Welt.de",
    "filename": "welt-b4b7-bbd1-a53a"
}