{
    "img_url": "https://www.welt.de/img/vermischtes/bilder-des-tages/mobile207948917/5312501947-ci102l-w1024/bdt-1305.jpg",
    "title": "Entdeckt",
    "description": "Ein Waschb\u00e4r krabbelt aus seinem Versteck auf ein Berliner Dach.",
    "details": "Welt.de",
    "filename": "welt-b460-622a-7efb"
}