{
    "img_url": "https://www.welt.de/img/vermischtes/bilder-des-tages/mobile208149861/5332505467-ci102l-w1024/Coronavirus-Rostocker-Zoo-bdt2205.jpg",
    "title": "Mecklenburg-Vorpommern, Rostock",
    "description": "Ein Eisb\u00e4r taucht durchs Becken des Polariums im Rostocker Zoo, w\u00e4hrend ihm Kinder dabei durch eine Scheibe zuschauen. Seit vier Wochen ist der Zoo",
    "details": "Welt.de",
    "filename": "welt-2f09-5fe0-c6e0"
}