{
    "img_url": "https://www.welt.de/img/vermischtes/bilder-des-tages/mobile208641683/5202506527-ci102l-w1024/Swimmer-Elizaveta-Beliaeva-trains-in-a-plastic-pool-outside-her-house-in-Kaliningrad-bdt3005.jpg",
    "title": "Am Plantschen",
    "description": "Im russischen Kaliningrad trainiert eine Schwimmerin im heimischen Pool.",
    "details": "Welt.de",
    "filename": "welt-f2b5-0e23-8be4"
}