{
    "img_url": "https://www.welt.de/img/vermischtes/bilder-des-tages/mobile208007871/6472501607-ci102l-w1024/MEXICO-HEALTH-VIRUS-DOG.jpg",
    "title": "Immerhin keine Schutzmaske",
    "description": "Auch an Assistenz-Mops Harley geht die Pandemie nicht spurlos vorbei. Er muss an seinem Arbeitsplatz, einem Krankenhaus in Mexiko-Stadt, jetzt auch Schu",
    "details": "Welt.de",
    "filename": "welt-b1e1-7d91-8e94"
}