{
    "img_url": "https://www.welt.de/img/vermischtes/bilder-des-tages/mobile208712331/1182503037-ci102l-w1024/A-worker-arranges-spare-parts-at-a-bdt0106.jpg",
    "title": "Ersatzteillager",
    "description": "Ein Arbeiter sortiert seinen Bestand in Dubai.",
    "details": "Welt.de",
    "filename": "welt-8b27-659f-4903"
}