{
    "img_url": "https://www.welt.de/img/vermischtes/bilder-des-tages/mobile208682449/9122506257-ci102l-w1024/SV-Sandhausen-v-Hannover-96-Second-Bundesliga-bdt-3105.jpg",
    "title": "Pappkameraden",
    "description": "Kartonbilder von Fans werden auf den Trib\u00fcnen f\u00fcr das Spiel zwischen SV Sandhausen und Hannover 96 im BWT-Stadion am Hardtwald aufgebaut.",
    "details": "Welt.de",
    "filename": "welt-0a08-f69f-dbd0"
}