{
    "img_url": "https://www.welt.de/img/vermischtes/bilder-des-tages/mobile208064691/6652507227-ci102l-w1024/Outbreak-of-the-coronavirus-disease-COVID-19-in-London.jpg",
    "title": "Schuhe \u00fcber Schuhe",
    "description": "Extinction Rebellion legt Kinderschuhpaare auf dem Trafalgar Square im Zentrum von London aus, um zu fordern, dass die Regierung einen klimafreundlichen Plan zu",
    "details": "Welt.de",
    "filename": "welt-e6ad-db7e-864f"
}