{
    "img_url": "https://www.welt.de/img/vermischtes/bilder-des-tages/mobile208007999/5022506717-ci102l-w1024/TOPSHOT-ARGENTINA-HEALTH-VIRUS.jpg",
    "title": "Dieser Patient atmet nicht - damit die echten damit niemals aufh\u00f6ren. Der Roboter schult argentinisches Personal im Umgang mit Covid-19-Patienten",
    "description": "Dieser Patient atmet nicht - damit die echten damit niemals aufh\u00f6ren. Der Roboter schult argentinisches Personal im Umgang mit Covid-19-Patienten.",
    "details": "Welt.de",
    "filename": "welt-945c-5b31-9ea1"
}