{
    "img_url": "https://www.welt.de/img/vermischtes/bilder-des-tages/mobile208172205/2982506297-ci102l-w1024/Outbreak-of-the-coronavirus-disease-COVID-19-in-Manaus-bdt2305.jpg",
    "title": "Kopfsprung",
    "description": "Kinder des Slums Educandos in Manaus (Brasilien) spielen im Wasser eines Zuflusses des Rio Negro.",
    "details": "Welt.de",
    "filename": "welt-76e8-3880-3d2f"
}