{
    "img_url": "https://www.welt.de/img/vermischtes/bilder-des-tages/mobile208778835/7492501267-ci102l-w1024/Smoke-in-the-colors-of-the-Italian-bdt0206.jpg",
    "title": "In den Himmel gemalt",
    "description": "Rauch in den Farben der italienischen Flagge weht \u00fcber der Basilika Santa Maria in Montesanto (l.) und der Kirche Santa Maria dei Miracoli auf der Piazza del",
    "details": "Welt.de",
    "filename": "welt-d762-4a2e-ba16"
}